Aug 04, 2017 5:20:13 PM game.GameState registerId
INFO: This game state is registered as : ID 0
Aug 04, 2017 5:20:13 PM game.GameManager startGame
INFO: Start Game State at : ID 0
Aug 04, 2017 5:20:13 PM image.ImageContainer loadCharacterFile
INFO: Image : ZEN_NEUTRAL has been loaded.
Aug 04, 2017 5:20:13 PM image.ImageContainer loadCharacterFile
INFO: Image : ZEN_STAND has been loaded.
Aug 04, 2017 5:20:14 PM image.ImageContainer loadCharacterFile
INFO: Image : ZEN_FORWARD_WALK has been loaded.
Aug 04, 2017 5:20:14 PM image.ImageContainer loadCharacterFile
INFO: Image : ZEN_DASH has been loaded.
Aug 04, 2017 5:20:14 PM image.ImageContainer loadCharacterFile
INFO: Image : ZEN_BACK_STEP has been loaded.
Aug 04, 2017 5:20:14 PM image.ImageContainer loadCharacterFile
INFO: Image : ZEN_CROUCH has been loaded.
Aug 04, 2017 5:20:15 PM image.ImageContainer loadCharacterFile
INFO: Image : ZEN_JUMP has been loaded.
Aug 04, 2017 5:20:15 PM image.ImageContainer loadCharacterFile
INFO: Image : ZEN_FOR_JUMP has been loaded.
Aug 04, 2017 5:20:15 PM image.ImageContainer loadCharacterFile
INFO: Image : ZEN_BACK_JUMP has been loaded.
Aug 04, 2017 5:20:15 PM image.ImageContainer loadCharacterFile
INFO: Image : ZEN_AIR has been loaded.
Aug 04, 2017 5:20:15 PM image.ImageContainer loadCharacterFile
INFO: Image : ZEN_STAND_GUARD has been loaded.
Aug 04, 2017 5:20:15 PM image.ImageContainer loadCharacterFile
INFO: Image : ZEN_CROUCH_GUARD has been loaded.
Aug 04, 2017 5:20:15 PM image.ImageContainer loadCharacterFile
INFO: Image : ZEN_AIR_GUARD has been loaded.
Aug 04, 2017 5:20:15 PM image.ImageContainer loadCharacterFile
INFO: Image : ZEN_STAND_GUARD_RECOV has been loaded.
Aug 04, 2017 5:20:15 PM image.ImageContainer loadCharacterFile
INFO: Image : ZEN_CROUCH_GUARD_RECOV has been loaded.
Aug 04, 2017 5:20:15 PM image.ImageContainer loadCharacterFile
INFO: Image : ZEN_AIR_GUARD_RECOV has been loaded.
Aug 04, 2017 5:20:15 PM image.ImageContainer loadCharacterFile
INFO: Image : ZEN_STAND_RECOV has been loaded.
Aug 04, 2017 5:20:15 PM image.ImageContainer loadCharacterFile
INFO: Image : ZEN_CROUCH_RECOV has been loaded.
Aug 04, 2017 5:20:15 PM image.ImageContainer loadCharacterFile
INFO: Image : ZEN_AIR_RECOV has been loaded.
Aug 04, 2017 5:20:15 PM image.ImageContainer loadCharacterFile
INFO: Image : ZEN_CHANGE_DOWN has been loaded.
Aug 04, 2017 5:20:15 PM image.ImageContainer loadCharacterFile
INFO: Image : ZEN_DOWN has been loaded.
