<?xml version="1.0" encoding="UTF-8"?>
<session version="1.0">
<refactoring comment="Move element &apos;test.jar&apos; to &apos;ai&apos;&#x0D;&#x0A;- Original project: &apos;DataCollectionRecognize&apos;&#x0D;&#x0A;- Destination element: &apos;ai&apos;&#x0D;&#x0A;- Original element: &apos;test.jar&apos;&#x0D;&#x0A;- Update references to refactored element" description="Move file" element1="test.jar" files="1" flags="589830" folders="0" id="org.eclipse.jdt.ui.move" policy="org.eclipse.jdt.ui.moveResources" qualified="false" references="true" stamp="1498339139283" target="/FightingICE/data/ai" units="0" version="1.0"/>
</session>